%YAML 1.1
%TAG !u! tag:unity3d.com,2011:
--- !u!1045 &1
EditorBuildSettings:
  m_ObjectHideFlags: 0
  serializedVersion: 2
  m_Scenes:
  - enabled: 1
    path: Assets/Carlos/Scenes/Tienda.unity
    guid: 2cda990e2423bbf4892e6590ba056729
  - enabled: 1
    path: Assets/JuegoFinal/InvernaderoFinal.unity
    guid: 5c45f2deef01ff74092ea8614c5e590a
  - enabled: 1
    path: Assets/Carlos/Scenes/Invernadero.unity
    guid: 7f7e2dcfeb7e4034e971547d5e594e0c
  m_configObjects: {}
